{
"documents":[
{"Documentsname":null,"Documenttype":"Application","DateCreated":null,"Description":"Application","Required":true},
{"Documentsname":null,"Documenttype":"Proof of Applicant","DateCreated":null,"Description":"Proof of Applicant's organic accreditation by USDA's NOP",
    "Required":true},
{"Documentsname":null,"Documenttype":"Practice standards","DateCreated":null,"Description":"Copy of any grass-fed practice standards for producers or handlers\n currently in use or anticipated for use under the OPT program",
    "Required":false},
{"Documentsname":null,"Documenttype":"Program Manual ","DateCreated":null,"Description":"Copy of Applicant's Certification Services Program Manual \n submitted as part of the federal organic accreditation application", 
    "Required":false }
]
}
